﻿{
  "dependencies": {
    "FubarCoder.RestSharp.Portable": "3.3.0",
    "Microsoft.ApplicationInsights": "1.0.0",
    "Microsoft.ApplicationInsights.PersistenceChannel": "1.0.0",
    "Microsoft.ApplicationInsights.WindowsApps": "1.0.0",
    "Microsoft.NETCore.UniversalWindowsPlatform": "5.0.0"
  },
  "frameworks": {
    "uap10.0": {
      "import": [
        "netstandard1.6"
      ]
    }
  },
  "runtimes": {
    "win10-arm": {},
    "win10-arm-aot": {},
    "win10-x86": {},
    "win10-x86-aot": {},
    "win10-x64": {},
    "win10-x64-aot": {}
  }
}